spacebun - Hands-on Exercise 7 (Work in Progress)
…
The code chunk below uses read_csv() function of readr package to import SGPools_svy21.csv into R as a tibble data frame called sgpools.

sgpools <- read_csv("data/aspatial/SGPools_svy21.csv")

After importing the data file into R, it is important for us to examine if the data file has been imported correctly. The code chunk below shows list() is used to do the job.

Notice that the sgpools data is in tibble data frame and not the common R data frame.

list(sgpools)

[[1]]
# A tibble: 306 × 7
   NAME           ADDRESS POSTCODE XCOORD YCOORD `OUTLET TYPE` `Gp1Gp2 Winnings`
   <chr>          <chr>      <dbl>  <dbl>  <dbl> <chr>                     <dbl>
 1 Livewire (Mar… 2 Bayf…    18972 30842. 29599. Branch                        5
 2 Livewire (Res… 26 Sen…    98138 26704. 26526. Branch                       11
 3 SportsBuzz (K… Lotus …   738078 20118. 44888. Branch                        0
 4 SportsBuzz (P… 1 Sele…   188306 29777. 31382. Branch                       44
 5 Prime Serango… Blk 54…   552542 32239. 39519. Branch                        0
 6 Singapore Poo… 1A Woo…   731001 21012. 46987. Branch                        3
 7 Singapore Poo… Blk 64…   370064 33990. 34356. Branch                       17
 8 Singapore Poo… Blk 88…   370088 33847. 33976. Branch                       16
 9 Singapore Poo… Blk 30…   540308 33910. 41275. Branch                       21
10 Singapore Poo… Blk 20…   560202 29246. 38943. Branch                       25
# ℹ 296 more rows
…
You can display the basic information of the newly created sgpools_sf by using the code chunk below.

The output shows that sgppols_sf is in POINT: point feature class. Its epsg ID is 3414.

The bounding box provides information of the extent of the geospatial data.

list(sgpools_sf)

[[1]]
Simple feature collection with 306 features and 5 fields
Geometry type: POINT
Dimension:     XY
Bounding box:  xmin: 7844.194 ymin: 26525.7 xmax: 45176.57 ymax: 47987.13
Projected CRS: SVY21 / Singapore TM
# A tibble: 306 × 6
   NAME                         ADDRESS POSTCODE `OUTLET TYPE` `Gp1Gp2 Winnings`
 * <chr>                        <chr>      <dbl> <chr>                     <dbl>
 1 Livewire (Marina Bay Sands)  2 Bayf…    18972 Branch                        5
 2 Livewire (Resorts World Sen… 26 Sen…    98138 Branch                       11
 3 SportsBuzz (Kranji)          Lotus …   738078 Branch                        0
 4 SportsBuzz (PoMo)            1 Sele…   188306 Branch                       44
 5 Prime Serangoon North        Blk 54…   552542 Branch                        0
 6 Singapore Pools Woodlands C… 1A Woo…   731001 Branch                        3
 7 Singapore Pools 64 Circuit … Blk 64…   370064 Branch                       17
 8 Singapore Pools 88 Circuit … Blk 88…   370088 Branch                       16
 9 Singapore Pools Anchorvale … Blk 30…   540308 Branch                       21
10 Singapore Pools Ang Mo Kio … Blk 20…   560202 Branch                       25
# ℹ 296 more rows
# ℹ 1 more variable: geometry <POINT [m]>
…
