spacebun - Take-home Exercise 1
…
  stu_qqq_SG_filtered[[level_col_name]] <- cut(stu_qqq_SG_filtered[[pv_col_name]], breaks = breaks, labels = level_labels, right = FALSE)
}

Preview pre-processed dataframe

We use the function head() to preview the first few rows of the pre-processed dataframe:

head(stu_qqq_SG_filtered, 200)

# A tibble: 200 × 66
   CNTSTUID GENDER STRATUM IMMIG     ESCS SOCIOECONOMICSTATUS PV1MATH PV2MATH
   <chr>    <chr>  <chr>   <chr>    <dbl> <ord>                 <dbl>   <dbl>
 1 70200001 FEMALE PUBLIC  NATIVE  0.184  Disadvantaged          639.    601.
 2 70200002 MALE   PUBLIC  NATIVE  0.826  Advantaged             697.    754.
 3 70200003 MALE   PUBLIC  NATIVE -1.04   Most Disadvantaged     694.    654.
 4 70200004 MALE   PUBLIC  NATIVE -0.961  Most Disadvantaged     427.    410.
 5 70200005 FEMALE PUBLIC  NATIVE  0.0856 Disadvantaged          436.    453.
 6 70200006 FEMALE PUBLIC  1STGEN  0.127  Disadvantaged          570.    540.
 7 70200007 MALE   PUBLIC  NATIVE -0.0154 Disadvantaged          772.    673.
 8 70200008 MALE   PUBLIC  1STGEN  1.16   Most Advantaged        568.    631.
 9 70200009 FEMALE PUBLIC  NATIVE  1.47   Most Advantaged        740.    768.
10 70200010 MALE   PUBLIC  NATIVE  0.520  Advantaged             586.    537.
# ℹ 190 more rows
# ℹ 58 more variables: PV3MATH <dbl>, PV4MATH <dbl>, PV5MATH <dbl>,
#   PV6MATH <dbl>, PV7MATH <dbl>, PV8MATH <dbl>, PV9MATH <dbl>, PV10MATH <dbl>,
#   PV1READ <dbl>, PV2READ <dbl>, PV3READ <dbl>, PV4READ <dbl>, PV5READ <dbl>,
#   PV6READ <dbl>, PV7READ <dbl>, PV8READ <dbl>, PV9READ <dbl>, PV10READ <dbl>,
#   PV1SCIE <dbl>, PV2SCIE <dbl>, PV3SCIE <dbl>, PV4SCIE <dbl>, PV5SCIE <dbl>,
#   PV6SCIE <dbl>, PV7SCIE <dbl>, PV8SCIE <dbl>, PV9SCIE <dbl>, …
…
